{
  "images" : [
    {
      "filename" : "ic_mmenu_transaksiterjadwal_mx_en_v2.png",
      "idiom" : "universal",
      "scale" : "1x"
    },
    {
      "filename" : "ic_mmenu_transaksiterjadwal_mx_en_v2@2x.png",
      "idiom" : "universal",
      "scale" : "2x"
    },
    {
      "filename" : "ic_mmenu_transaksiterjadwal_mx_en_v2@3x.png",
      "idiom" : "universal",
      "scale" : "3x"
    }
  ],
  "info" : {
    "author" : "xcode",
    "version" : 1
  }
}
